%YAML 1.1
%TAG !u! tag:unity3d.com,2011:
--- !u!1045 &1
EditorBuildSettings:
  m_ObjectHideFlags: 0
  serializedVersion: 2
  m_Scenes:
  - enabled: 1
    path: Assets/_Scenes/Menu/Main Menu.unity
    guid: 877aa6b979a6e16429b2be70c0ea9abe
  - enabled: 1
    path: Assets/_Scenes/Menu/Level Select.unity
    guid: 866af2adfad0ff14cabe8ac9aea57012
  - enabled: 1
    path: Assets/_Scenes/Menu/Instructions.unity
    guid: 3248507fd57849f43884cd12eb66b4ae
  - enabled: 1
    path: Assets/_Scenes/Story/Introduction.unity
    guid: f6137d522d1c63d429691aaaf6fc62a8
  - enabled: 1
    path: Assets/_Scenes/Story/Ending.unity
    guid: ebf7e82696239fb449631b78d832e5a4
  - enabled: 1
    path: Assets/_Scenes/_Levels/Last_Level.unity
    guid: 6b4d81257de99f94c8edc508cb6c52d1
  - enabled: 1
    path: Assets/_Scenes/_Levels/Planet_Navigation_And_Timers/Level_1.unity
    guid: 323779cfce5197a429ee04855ded9cc5
  - enabled: 1
    path: Assets/_Scenes/_Levels/Planet_Navigation_And_Timers/Level_2.unity
    guid: ddb98dd3f783e9541b1d12642e402ab4
  - enabled: 1
    path: Assets/_Scenes/_Levels/Planet_Navigation_And_Timers/Level_3.unity
    guid: 5e3324a641a202b428fad446c76a7d2e
  - enabled: 1
    path: Assets/_Scenes/_Levels/Planet_Navigation_And_Timers/Level_4.unity
    guid: 9cd1d1afc483fbf46b8d4f147b87dc5c
  - enabled: 1
    path: Assets/_Scenes/_Levels/Planet_Navigation_And_Timers/Level_5.unity
    guid: 2b51aef4ee14bbf4ebdf1a5394699341
  - enabled: 1
    path: Assets/_Scenes/_Levels/Spikey_Levels/Level_6.unity
    guid: edfa2262145b8c84d9288f4749efe7e7
  - enabled: 1
    path: Assets/_Scenes/_Levels/Spikey_Levels/Level_7.unity
    guid: b993bf1c6fb86804085be44871fe2096
  - enabled: 1
    path: Assets/_Scenes/_Levels/Spikey_Levels/Level_8.unity
    guid: 281aa8a77aef5fe468833542c6f25e45
  - enabled: 1
    path: Assets/_Scenes/_Levels/Spikey_Levels/Level_9.unity
    guid: d55a03f12234a484e854e49c50d3e23b
  - enabled: 1
    path: Assets/_Scenes/_Levels/Spikey_Levels/Level_10.unity
    guid: 456d0fabb69051e45ae95598a04176b5
  - enabled: 1
    path: Assets/_Scenes/_Levels/Projectiles/Level_11.unity
    guid: 0d9c18044fd2b3c42960dc3946ce51d3
  - enabled: 1
    path: Assets/_Scenes/_Levels/Projectiles/Level_12.unity
    guid: 4687c87f6ab83a6438ec1127b7ec5d61
  - enabled: 1
    path: Assets/_Scenes/_Levels/Projectiles/Level_13.unity
    guid: c4faa03f329cb7f4b8f2cf4c878f7dfa
  - enabled: 1
    path: Assets/_Scenes/_Levels/Projectiles/Level_14.unity
    guid: 524f4227e32cce24d9f439ee5759c4eb
  - enabled: 1
    path: Assets/_Scenes/_Levels/Projectiles/Level_15.unity
    guid: b2e5e8ed672f59a4c8fb78429a7c9f6f
  - enabled: 1
    path: Assets/_Scenes/_Levels/Lasers/Level_16.unity
    guid: 233302c7f2fe88b46bbe6c5866037d5e
  - enabled: 1
    path: Assets/_Scenes/_Levels/Lasers/Level_17.unity
    guid: 4eb2f273f04a10e4a8f7ab6cb8a3c506
  - enabled: 1
    path: Assets/_Scenes/_Levels/Lasers/Level_18.unity
    guid: be2f96f41acf91742abc0a6395f1fa9b
  - enabled: 1
    path: Assets/_Scenes/_Levels/Lasers/Level_19.unity
    guid: 7a5ad311051121d46bc190d0b47204fb
  - enabled: 1
    path: Assets/_Scenes/_Levels/Lasers/Level_20.unity
    guid: 19e782bc3f2eed14e8059eec202a6bf6
  - enabled: 1
    path: Assets/_Scenes/Menu/Credits.unity
    guid: 6466880a5140d9947b9e38f4551fac44
